{
    "resultCount": 27841,
    "start": 0,
    "page": 1,
    "pageCount": 2785,
    "itemsPerPage": 10,
    "hasNextPage": true,
    "hasPreviousPage": false,
    "items": [
        {
            "advertisementId": 116237026,
            "score": 1.0,
            "agencyId": "q027x",
            "title": "neu renovierte 3-Zimmer Wohnung",
            "street": "Käppeligasse 6",
            "zip": "4125",
            "text": "Riehen",
            "city": "Riehen",
            "country": "CH",
            "geoLocation": "7.6559072,47.5940580",
            "offerType": "RENT",
            "objectCategory": "APPT",
            "objectType": 1,
            "numberRooms": 3.0,
            "floor": 2,
            "surfaceLiving": 85,
            "surfaceUsable": 85,
            "currency": "CHF",
            "sellingPrice": 1690,
            "price": 1690,
            "priceUnit": "MONTHLY",
            "timestamp": 1536150995369,
            "timestampStr": "05.09.2018",
            "balcony": true,
            "lastModified": 1536150995369,
            "searchInquiryTimestamp": 1532936170000,
            "picFilename1Small": "https://uat.homegate.ch/www/ftp/q027x/images/0001466.jpg/s/75/75",
            "picFilename1Medium": "https://uat.homegate.ch/www/ftp/q027x/images/0001466.jpg/s/187/187",
            "pictures": [
                "https://uat.homegate.ch/www/ftp/q027x/images/0001466.jpg",
                "https://uat.homegate.ch/www/ftp/q027x/images/0001470.jpg",
                "https://uat.homegate.ch/www/ftp/q027x/images/0001487.jpg",
                "https://uat.homegate.ch/www/ftp/q027x/images/0001467.jpg",
                "https://uat.homegate.ch/www/ftp/q027x/images/0001473.jpg",
                "https://uat.homegate.ch/www/ftp/q027x/images/0001474.jpg",
                "https://uat.homegate.ch/www/ftp/q027x/images/0001485.jpg",
                "https://uat.homegate.ch/www/ftp/q027x/images/0001476.jpg",
                "https://uat.homegate.ch/www/ftp/q027x/images/0001490.jpg",
                "https://uat.homegate.ch/www/ftp/q027x/images/0001491.jpg"
            ],
            "objectTypeLabel": "Wohnung",
            "countryLabel": "Schweiz",
            "floorLabel": "2. Etage",
            "description": " neu renovierte Wohnung sep. WC / Bad, Kellerabteil + Estrichabteil, grosse Räume, Einbauschrank Velokeller vorhanden gute Anbindung an ÖV Einkaufsmöglichkeiten in Fussdistanz ",
            "listingType": "TOP",
            "agencyLogoUrl": "https://uat.homegate.ch/neutral/img/logos/l_q027.gif",
            "agencyPhoneDay": "061 606 60 84",
            "contactPerson": "Flavia Gentili",
            "contactPhone": "061 606 60 84",
            "interestedFormType": 2,
            "externalUrls": [
                {
                    "url": "https://uat.homegate.ch/www/ftp/q027x/doc/0000027.pdf",
                    "type": "DOCUMENT",
                    "label": "Grundriss Whg (blau)"
                }
            ],
            "picFilename1": "https://uat.homegate.ch/www/ftp/q027x/images/0001466.jpg"
        },
        {
            "advertisementId": 116137453,
            "score": 1.0,
            "agencyId": "x311x",
            "title": "Ruhig - zentral und zu einem fairen Preis",
            "street": "Breitestrasse 4",
            "zip": "8572",
            "text": "Berg TG",
            "city": "Berg TG",
            "country": "CH",
            "geoLocation": "9.1653643,47.5798436",
            "offerType": "RENT",
            "objectCategory": "APPT",
            "objectType": 1,
            "numberRooms": 3.5,
            "floor": 2,
            "surfaceLiving": 97,
            "currency": "CHF",
            "sellingPrice": 1590,
            "price": 1590,
            "priceUnit": "MONTHLY",
            "timestamp": 1535702798775,
            "timestampStr": "31.08.2018",
            "lift": true,
            "balcony": true,
            "lastModified": 1535702798775,
            "searchInquiryTimestamp": 1533788063000,
            "picFilename1Small": "https://uat.homegate.ch/www/ftp/x311x/images/0018227.jpg/s/75/75",
            "picFilename1Medium": "https://uat.homegate.ch/www/ftp/x311x/images/0018227.jpg/s/187/187",
            "pictures": [
                "https://uat.homegate.ch/www/ftp/x311x/images/0018227.jpg",
                "https://uat.homegate.ch/www/ftp/x311x/images/0018230.jpg",
                "https://uat.homegate.ch/www/ftp/x311x/images/0018228.jpg",
                "https://uat.homegate.ch/www/ftp/x311x/images/0018226.jpg",
                "https://uat.homegate.ch/www/ftp/x311x/images/0018221.jpg",
                "https://uat.homegate.ch/www/ftp/x311x/images/0018231.jpg",
                "https://uat.homegate.ch/www/ftp/x311x/images/0018222.jpg",
                "https://uat.homegate.ch/www/ftp/x311x/images/0018223.jpg",
                "https://uat.homegate.ch/www/ftp/x311x/images/0018224.jpg",
                "https://uat.homegate.ch/www/ftp/x311x/images/0018225.jpg",
                "https://uat.homegate.ch/www/ftp/x311x/images/0018229.jpg"
            ],
            "objectTypeLabel": "Wohnung",
            "countryLabel": "Schweiz",
            "floorLabel": "2. Etage",
            "description": "Immokanzlei AG – Ihr Partner für Immobilien im Kanton Thurgau am Bodensee. Kauf, Verkauf, Vermietung, Verwaltung, Schätzung, Immobilienberatung. Kompetent und fair – mit besten Referenzen. Gemütliche 3.5 Zi.-Wohung im 2. OG. Balkon mit Abendsonne und Weitsicht. Abstellplatz kann für CHF 50.- dazu gemietet werden. weitere Angaben Stockwerk: 2. Stock Anzahl Bäder: 1 Böden: Platten (Küche/Bad) und...",
            "listingType": "TOP",
            "agencyLogoUrl": "https://uat.homegate.ch/neutral/img/logos/l_x311.gif",
            "agencyPhoneDay": "+41 71 677 99 84",
            "contactPerson": "Aaron Ulmann",
            "contactPhone": "+41 71 677 99 84",
            "interestedFormType": 2,
            "externalUrls": [
                {
                    "url": "https://360.casatour.ch/view/fullscreen/id/VR670",
                    "type": "VIRTUAL_TOUR"
                }
            ],
            "picFilename1": "https://uat.homegate.ch/www/ftp/x311x/images/0018227.jpg"
        },
        {
            "advertisementId": 116145263,
            "score": 1.0,
            "agencyId": "x311x",
            "title": "Designer-Wohnung in der City",
            "street": "Finkernstrasse 41a",
            "zip": "8280",
            "text": "Kreuzlingen",
            "city": "Kreuzlingen",
            "country": "CH",
            "geoLocation": "9.1669508,47.6481755",
            "offerType": "RENT",
            "objectCategory": "APPT",
            "objectType": 1,
            "numberRooms": 3.5,
            "floor": 3,
            "surfaceLiving": 110,
            "currency": "CHF",
            "sellingPrice": 2100,
            "price": 2100,
            "priceUnit": "MONTHLY",
            "timestamp": 1535702798775,
            "timestampStr": "31.08.2018",
            "lift": true,
            "balcony": true,
            "lastModified": 1535702798775,
            "searchInquiryTimestamp": 1533895537000,
            "picFilename1Small": "https://uat.homegate.ch/www/ftp/x311x/images/0018305.jpg/s/75/75",
            "picFilename1Medium": "https://uat.homegate.ch/www/ftp/x311x/images/0018305.jpg/s/187/187",
            "pictures": [
                "https://uat.homegate.ch/www/ftp/x311x/images/0018305.jpg",
                "https://uat.homegate.ch/www/ftp/x311x/images/0018313.jpg",
                "https://uat.homegate.ch/www/ftp/x311x/images/0018306.jpg",
                "https://uat.homegate.ch/www/ftp/x311x/images/0018309.jpg",
                "https://uat.homegate.ch/www/ftp/x311x/images/0018310.jpg",
                "https://uat.homegate.ch/www/ftp/x311x/images/0018311.jpg",
                "https://uat.homegate.ch/www/ftp/x311x/images/0018307.jpg",
                "https://uat.homegate.ch/www/ftp/x311x/images/0018312.jpg",
                "https://uat.homegate.ch/www/ftp/x311x/images/0018308.jpg"
            ],
            "objectTypeLabel": "Wohnung",
            "countryLabel": "Schweiz",
            "floorLabel": "3. Etage",
            "description": "Immokanzlei AG – Ihr Partner für Immobilien im Kanton Thurgau am Bodensee. Kauf, Verkauf, Vermietung, Verwaltung, Schätzung, Immobilienberatung. Kompetent und fair – mit besten Referenzen. 3.5 Zi.-Wohnung - stylisch, modern, grosszügig: grosszügiger Eingangsbereich mit Einbauschränken Schlafzimmer mit Parkett und direktem Zugang zum Bad Bodenebene Duschen moderne Küche mit Granitabdeckung gross...",
            "listingType": "TOP",
            "agencyLogoUrl": "https://uat.homegate.ch/neutral/img/logos/l_x311.gif",
            "agencyPhoneDay": "+41 71 677 99 84",
            "contactPerson": "Aaron Ulmann",
            "contactPhone": "+41 71 677 99 84",
            "interestedFormType": 2,
            "externalUrls": [
                {
                    "url": "https://360.casatour.ch/view/fullscreen/id/VR69W",
                    "type": "VIRTUAL_TOUR"
                }
            ],
            "picFilename1": "https://uat.homegate.ch/www/ftp/x311x/images/0018305.jpg"
        },
        {
            "advertisementId": 116044384,
            "score": 1.0,
            "agencyId": "ipv",
            "title": "Attraktive 3.5 Zimmer Attikawohnung mit sonniger Terrasse",
            "street": "Schulstrasse 97",
            "zip": "8105",
            "text": "Regensdorf",
            "city": "Regensdorf",
            "country": "CH",
            "geoLocation": "8.4666538,47.4353681",
            "offerType": "RENT",
            "objectCategory": "APPT",
            "objectType": 3,
            "numberRooms": 3.5,
            "floor": 4,
            "surfaceLiving": 93,
            "currency": "CHF",
            "sellingPrice": 2675,
            "price": 2675,
            "priceUnit": "MONTHLY",
            "timestamp": 1535702798775,
            "timestampStr": "31.08.2018",
            "wheelchairAccess": true,
            "animalAllowed": true,
            "builtNew": true,
            "lift": true,
            "balcony": true,
            "lastModified": 1535702798775,
            "searchInquiryTimestamp": 1531228167000,
            "picFilename1Small": "https://uat.homegate.ch/www/ftp/ipv/images/0011457.jpg/s/75/75",
            "picFilename1Medium": "https://uat.homegate.ch/www/ftp/ipv/images/0011457.jpg/s/187/187",
            "pictures": [
                "https://uat.homegate.ch/www/ftp/ipv/images/0011457.jpg",
                "https://uat.homegate.ch/www/ftp/ipv/images/0011461.jpg",
                "https://uat.homegate.ch/www/ftp/ipv/images/0011451.jpg",
                "https://uat.homegate.ch/www/ftp/ipv/images/0011462.jpg",
                "https://uat.homegate.ch/www/ftp/ipv/images/0011458.jpg",
                "https://uat.homegate.ch/www/ftp/ipv/images/0011460.jpg",
                "https://uat.homegate.ch/www/ftp/ipv/images/0011456.jpg",
                "https://uat.homegate.ch/www/ftp/ipv/images/0011449.jpg",
                "https://uat.homegate.ch/www/ftp/ipv/images/0011450.jpg",
                "https://uat.homegate.ch/www/ftp/ipv/images/0011447.jpg",
                "https://uat.homegate.ch/www/ftp/ipv/images/0011459.jpg",
                "https://uat.homegate.ch/www/ftp/ipv/images/0011453.jpg",
                "https://uat.homegate.ch/www/ftp/ipv/images/0011448.jpg"
            ],
            "objectTypeLabel": "Attikawohnung",
            "countryLabel": "Schweiz",
            "floorLabel": "4. Etage",
            "description": "Diese schöne 3.5-Zimmer Attikawohnung im Projekt \"Sonnenhof\" in Regensdorf überzeugt mit Ihrem durchdachten Grundriss, dem hohem Ausbaustandard sowie der grosszügigen 72 m² Terrasse, welche zum Verweilen und geniessen einlädt. Die 93 m² Wohnfläche verteilt sich dabei auf einen grossen Wohn- und Essbereich mit offener und eleganter Küche. Die zwei lichtdurchfluteten Zimmer sowie zwei Bäder mit W...",
            "adUrl": "http://www.mobimo.ch",
            "listingType": "TOP",
            "agencyLogoUrl": "https://uat.homegate.ch/neutral/img/logos/l_ipv.gif",
            "agencyPhoneDay": "+41 44 397 11 11",
            "contactPerson": "Melanie Greschner",
            "contactPhone": "+41 44 397 11 11",
            "interestedFormType": 2,
            "externalUrls": [
                {
                    "url": "https://uat.homegate.ch/www/ftp/ipv/doc/0001053.pdf",
                    "type": "DOCUMENT"
                }
            ],
            "picFilename1": "https://uat.homegate.ch/www/ftp/ipv/images/0011457.jpg"
        },
        {
            "advertisementId": 116199440,
            "score": 1.0,
            "agencyId": "h343",
            "title": "Wohnen im Grünen",
            "street": "Mosenstrasse 32",
            "zip": "8854",
            "text": "Galgenen",
            "city": "Galgenen",
            "country": "CH",
            "geoLocation": "8.8748280,47.1824640",
            "offerType": "RENT",
            "objectCategory": "APPT",
            "objectType": 1,
            "numberRooms": 4.5,
            "floor": 2,
            "surfaceLiving": 113,
            "currency": "CHF",
            "sellingPrice": 1980,
            "price": 1980,
            "priceUnit": "MONTHLY",
            "timestamp": 1535550404917,
            "timestampStr": "29.08.2018",
            "wheelchairAccess": true,
            "lift": true,
            "balcony": true,
            "lastModified": 1535550404917,
            "searchInquiryTimestamp": 1535542738000,
            "picFilename1Small": "https://uat.homegate.ch/www/ftp/h343/images/0002312.jpg/s/75/75",
            "picFilename1Medium": "https://uat.homegate.ch/www/ftp/h343/images/0002312.jpg/s/187/187",
            "pictures": [
                "https://uat.homegate.ch/www/ftp/h343/images/0002312.jpg",
                "https://uat.homegate.ch/www/ftp/h343/images/0002315.jpg",
                "https://uat.homegate.ch/www/ftp/h343/images/0002314.jpg",
                "https://uat.homegate.ch/www/ftp/h343/images/0002317.jpg",
                "https://uat.homegate.ch/www/ftp/h343/images/0002313.jpg",
                "https://uat.homegate.ch/www/ftp/h343/images/0002318.jpg"
            ],
            "objectTypeLabel": "Wohnung",
            "countryLabel": "Schweiz",
            "floorLabel": "2. Etage",
            "description": "Top Wohnlage mitten im Grünen und doch in kurzer Fussdistanz zu Einkauf, Schulen und öV. Die Wohnung mit Eigentumsstandart bietet einen unverbaubaren Weitblick - romantischen Sonnenuntergängen inklusive. Ein idealer Rückzugsort für Geniesser. Die Besonderheiten im Ueberblick: o absolut ruhige Wohnlage im Grünen o grosszügige Raumaufteilung o Parkettbeläge in Wohn- & Schlafräumen o DU/WC sowie B...",
            "listingType": "TOP",
            "agencyLogoUrl": "https://uat.homegate.ch/neutral/img/logos/l_h343.png",
            "agencyPhoneDay": "+41 55 410 75 77",
            "contactPerson": "Andy Imfeld",
            "contactPhone": "+41 79 406 39 82",
            "interestedFormType": 2,
            "externalUrls": [],
            "picFilename1": "https://uat.homegate.ch/www/ftp/h343/images/0002312.jpg"
        },
        {
            "advertisementId": 116113338,
            "score": 1.0,
            "agencyId": "x334",
            "title": "Tolle komplett sanierte Singlewohnung",
            "street": "Büchelring 5",
            "zip": "8134",
            "text": "Adliswil",
            "city": "Adliswil",
            "country": "CH",
            "geoLocation": "8.5255270,47.3117560",
            "offerType": "RENT",
            "objectCategory": "APPT",
            "objectType": 1,
            "numberRooms": 1.5,
            "surfaceLiving": 27,
            "currency": "CHF",
            "sellingPrice": 1490,
            "price": 1490,
            "priceUnit": "MONTHLY",
            "timestamp": 1535542047561,
            "timestampStr": "29.08.2018",
            "lastModified": 1535542047561,
            "searchInquiryTimestamp": 1533047445000,
            "picFilename1Small": "https://uat.homegate.ch/www/ftp/x334/images/0011485.jpg/s/75/75",
            "picFilename1Medium": "https://uat.homegate.ch/www/ftp/x334/images/0011485.jpg/s/187/187",
            "pictures": [
                "https://uat.homegate.ch/www/ftp/x334/images/0011485.jpg",
                "https://uat.homegate.ch/www/ftp/x334/images/0011492.jpg",
                "https://uat.homegate.ch/www/ftp/x334/images/0011490.jpg",
                "https://uat.homegate.ch/www/ftp/x334/images/0011483.jpg",
                "https://uat.homegate.ch/www/ftp/x334/images/0011495.jpg",
                "https://uat.homegate.ch/www/ftp/x334/images/0011487.jpg"
            ],
            "objectTypeLabel": "Wohnung",
            "countryLabel": "Schweiz",
            "description": "Ideale Wohnung für Singles!!! Die Liegenschaft wird zur Zeit kernsaniert und steht Ihnen ab 1. Oktober 2018 zum Bezug bereit. Die hochwertige Ausführung hat den Standard wie bei Eigentumswohnungen! Durch die erhöhte Lage, die gute Besonnung und die unverbaubare Aussicht, ist diese 1.5 Zimmer-Wohnung einzigartig in Adliswil. Sie verfügt über einen grosszügigen Balkon, damit Sie Ihre Zeit auch dr...",
            "listingType": "TOP",
            "agencyLogoUrl": "https://uat.homegate.ch/neutral/img/logos/l_x334.gif",
            "agencyPhoneDay": "+41 43 388 03 30",
            "contactPerson": "Manuel Grieder",
            "contactPhone": "+41 43 388 03 30",
            "interestedFormType": 3,
            "externalUrls": [],
            "picFilename1": "https://uat.homegate.ch/www/ftp/x334/images/0011485.jpg"
        },
        {
            "advertisementId": 114615480,
            "score": 1.0,
            "agencyId": "x334",
            "title": "Top Ausbaustandard",
            "street": "Büchelring 5",
            "zip": "8134",
            "text": "Adliswil",
            "city": "Adliswil",
            "country": "CH",
            "geoLocation": "8.5255270,47.3117560",
            "offerType": "RENT",
            "objectCategory": "APPT",
            "objectType": 1,
            "numberRooms": 3.5,
            "floor": 0,
            "surfaceLiving": 73,
            "currency": "CHF",
            "sellingPrice": 2490,
            "price": 2490,
            "priceUnit": "MONTHLY",
            "timestamp": 1535542047561,
            "timestampStr": "29.08.2018",
            "lastModified": 1535542047561,
            "searchInquiryTimestamp": 1527076872000,
            "picFilename1Small": "https://uat.homegate.ch/www/ftp/x334/images/0011536.jpg/s/75/75",
            "picFilename1Medium": "https://uat.homegate.ch/www/ftp/x334/images/0011536.jpg/s/187/187",
            "pictures": [
                "https://uat.homegate.ch/www/ftp/x334/images/0011536.jpg",
                "https://uat.homegate.ch/www/ftp/x334/images/0011535.jpg",
                "https://uat.homegate.ch/www/ftp/x334/images/0011529.jpg",
                "https://uat.homegate.ch/www/ftp/x334/images/0011537.jpg",
                "https://uat.homegate.ch/www/ftp/x334/images/0011538.jpg",
                "https://uat.homegate.ch/www/ftp/x334/images/0011530.jpg"
            ],
            "objectTypeLabel": "Wohnung",
            "countryLabel": "Schweiz",
            "floorLabel": "EG",
            "description": "Die Liegenschaft wird zur Zeit kernsaniert und steht Ihnen ab 1. Oktober 2018 zum Bezug bereit, die hochwertige Ausführung entspricht dem Eigentumswohnungsstandard. Die erhöhte Lage, die gute Besonnung und die unverbaubare Aussicht, finden Sie nur in dieser Liegenschaft in Adliswil. Der Gartensitzplatz und Balkon erweitern Ihren Wohnraum zu einem grossartigen Aussenbereich, damit Sie Ihre Zeit ...",
            "listingType": "TOP",
            "agencyLogoUrl": "https://uat.homegate.ch/neutral/img/logos/l_x334.gif",
            "agencyPhoneDay": "+41 43 388 03 30",
            "contactPerson": "Manuel Grieder",
            "contactPhone": "+41 43 388 03 30",
            "interestedFormType": 3,
            "externalUrls": [],
            "picFilename1": "https://uat.homegate.ch/www/ftp/x334/images/0011536.jpg"
        },
        {
            "advertisementId": 114634124,
            "score": 1.0,
            "agencyId": "x334",
            "title": "Luxuriöse Dachwohnung mit grossen Terrassen",
            "street": "Büchelring 5",
            "zip": "8134",
            "text": "Adliswil",
            "city": "Adliswil",
            "country": "CH",
            "geoLocation": "8.5255270,47.3117560",
            "offerType": "RENT",
            "objectCategory": "APPT",
            "objectType": 3,
            "numberRooms": 3.5,
            "surfaceLiving": 82,
            "currency": "CHF",
            "sellingPrice": 3410,
            "price": 3410,
            "priceUnit": "MONTHLY",
            "timestamp": 1535542047561,
            "timestampStr": "29.08.2018",
            "lastModified": 1535542047561,
            "searchInquiryTimestamp": 1527137471000,
            "picFilename1Small": "https://uat.homegate.ch/www/ftp/x334/images/0011596.jpg/s/75/75",
            "picFilename1Medium": "https://uat.homegate.ch/www/ftp/x334/images/0011596.jpg/s/187/187",
            "pictures": [
                "https://uat.homegate.ch/www/ftp/x334/images/0011596.jpg",
                "https://uat.homegate.ch/www/ftp/x334/images/0011599.jpg",
                "https://uat.homegate.ch/www/ftp/x334/images/0011593.jpg",
                "https://uat.homegate.ch/www/ftp/x334/images/0011600.jpg",
                "https://uat.homegate.ch/www/ftp/x334/images/0011597.jpg",
                "https://uat.homegate.ch/www/ftp/x334/images/0011594.jpg"
            ],
            "objectTypeLabel": "Attikawohnung",
            "countryLabel": "Schweiz",
            "description": "Was für eine Aussicht! Welche luxuriöse Ausstattung! Über den Dächern von Adliswil wird ab 1.10.2018 für Sie ein Wohntraum wahr. Durch die erhöhte Lage, die gute Besonnung, unverbaubare Aussicht ist diese Wohnungen einzigartig in Adliswil. Die Liegenschaft wird zur Zeit kernsaniert und steht Ihnen ab 1. Oktober 2018 zum Bezug bereit. Der Ausbau erfolgt im Eigentumswohnungsstandard! Die grosszüg...",
            "listingType": "TOP",
            "agencyLogoUrl": "https://uat.homegate.ch/neutral/img/logos/l_x334.gif",
            "agencyPhoneDay": "+41 43 388 03 30",
            "contactPerson": "Manuel Grieder",
            "contactPhone": "+41 43 388 03 30",
            "interestedFormType": 3,
            "externalUrls": [],
            "picFilename1": "https://uat.homegate.ch/www/ftp/x334/images/0011596.jpg"
        },
        {
            "advertisementId": 109263944,
            "score": 1.0,
            "agencyId": "heia",
            "title": "dieses Inserate bitte nie lsöchen!!!",
            "street": "Elbogen",
            "zip": "3998",
            "text": "Reckingen VS",
            "city": "Reckingen VS",
            "country": "CH",
            "geoLocation": "8.2419350,46.4694440",
            "offerType": "RENT",
            "objectCategory": "SECONDARY",
            "objectType": 0,
            "currency": "CHF",
            "priceUnit": "MONTHLY",
            "timestamp": 1538060866957,
            "timestampStr": "27.09.2018",
            "wheelchairAccess": true,
            "lastModified": 1538060866957,
            "searchInquiryTimestamp": 1504800132000,
            "picFilename1Small": "https://uat.homegate.ch/www/ftp/heia/images/201709071603083475513.jpg/s/75/75",
            "picFilename1Medium": "https://uat.homegate.ch/www/ftp/heia/images/201709071603083475513.jpg/s/187/187",
            "pictures": [
                "https://uat.homegate.ch/www/ftp/heia/images/201709071603083475513.jpg"
            ],
            "objectTypeLabel": "Hobbyraum",
            "countryLabel": "Schweiz",
            "description": "Miete >Wohnen >Hobbyraum",
            "adUrlTitle": "",
            "adUrl": "",
            "listingType": "TOP",
            "agencyLogoUrl": "https://uat.homegate.ch/neutral/img/logos/xhom_LOGO_OWR_black.png",
            "agencyPhoneDay": "+41 44 711 86 88",
            "contactPerson": " ",
            "contactPhone": "+41 44 711 86 88",
            "interestedFormType": 2,
            "externalUrls": [],
            "picFilename1": "https://uat.homegate.ch/www/ftp/heia/images/201709071603083475513.jpg"
        },
        {
            "advertisementId": 107309279,
            "score": 1.0,
            "agencyId": "nhpk",
            "title": "Charmante Singlewohnung 2018 NEU renoviert -> Herbst-Rabatt",
            "street": "Châtelstrasse 18",
            "zip": "8355",
            "text": "Aadorf",
            "city": "Aadorf",
            "country": "CH",
            "geoLocation": "8.9024982,47.4889829",
            "offerType": "RENT",
            "objectCategory": "APPT",
            "objectType": 1,
            "numberRooms": 1.5,
            "surfaceLiving": 46,
            "currency": "CHF",
            "sellingPrice": 996,
            "price": 996,
            "priceUnit": "MONTHLY",
            "timestamp": 1534762345390,
            "timestampStr": "20.08.2018",
            "balcony": true,
            "lastModified": 1534762345390,
            "searchInquiryTimestamp": 1493999923000,
            "picFilename1Small": "https://uat.homegate.ch/www/ftp/nhpk/images/O43800144_20170406163027.jpg/s/75/75",
            "picFilename1Medium": "https://uat.homegate.ch/www/ftp/nhpk/images/O43800144_20170406163027.jpg/s/187/187",
            "pictures": [
                "https://uat.homegate.ch/www/ftp/nhpk/images/O43800144_20170406163027.jpg",
                "https://uat.homegate.ch/www/ftp/nhpk/images/O43800160_20170406163159.jpg",
                "https://uat.homegate.ch/www/ftp/nhpk/images/O43800151_20170406163048.jpg",
                "https://uat.homegate.ch/www/ftp/nhpk/images/O43800162_20170406163215.jpg",
                "https://uat.homegate.ch/www/ftp/nhpk/images/O43800152_20170406163057.jpg",
                "https://uat.homegate.ch/www/ftp/nhpk/images/O43800157_20170406163132.jpg",
                "https://uat.homegate.ch/www/ftp/nhpk/images/O43800158_20170406163140.jpg",
                "https://uat.homegate.ch/www/ftp/nhpk/images/O43800149_20170406163038.jpg",
                "https://uat.homegate.ch/www/ftp/nhpk/images/O43800154_20170406163104.jpg",
                "https://uat.homegate.ch/www/ftp/nhpk/images/O43800161_20170406163207.jpg",
                "https://uat.homegate.ch/www/ftp/nhpk/images/O43800159_20170406163149.jpg",
                "https://uat.homegate.ch/www/ftp/nhpk/images/O48096779_20171201094431.jpg"
            ],
            "objectTypeLabel": "Wohnung",
            "countryLabel": "Schweiz",
            "description": "************************ Chatelstrasse 16, 8355 Aadorf . Sonnige Singlewohnung 2018, NEU renoviert ************************ Attraktive, sehr schöne, helle Sonnen-Singlewohnung, an hervorragender Südlage im bekannten Wohnhaus Lindenhof / Châtelstrasse mit sehr angenehmen Mietern, grünem Garten und Ruhebereich. NUR 1 Minute von S-Bahnhof entfernt. . Charmante 1.5 Zimmerwohnung ca. 46 m2 grosszügi...",
            "listingType": "STANDARD",
            "agencyPhoneDay": "+41 43 536 86 15",
            "contactPerson": "Anna Meier c/o Proinvest AG",
            "contactPhone": "+41 43 536 86 15",
            "interestedFormType": 2,
            "externalUrls": [],
            "picFilename1": "https://uat.homegate.ch/www/ftp/nhpk/images/O43800144_20170406163027.jpg"
        }
    ]
}
